Assignment3
…
summary(anova1)

##              Df Sum Sq Mean Sq F value Pr(>F)  
## JWTR_label    8   3211   401.3   2.079 0.0375 *
## Residuals   314  60600   193.0                 
## ---
## Signif. codes:  0 '***' 0.001 '**' 0.01 '*' 0.05 '.' 0.1 ' ' 1

differences1 <- TukeyHSD(anova1)

as_tibble(cbind(pair = row.names(differences1$JWTR_label),
                differences1$JWTR_label))

## # A tibble: 36 x 5
##    pair                     diff         lwr           upr         `p adj`      
##    <chr>                    <chr>        <chr>         <chr>       <chr>        
##  1 Bus or trolley bus-Bicy~ 19.17117117~ 0.0734554971~ 38.2688868~ 0.0482840646~
##  2 Car, truck, or van-Bicy~ 14.88888888~ -3.470793944~ 33.2485717~ 0.2202866418~
##  3 Ferryboat-Bicycle        22.08333333~ -5.926986117~ 50.0936527~ 0.2545107559~
##  4 Other method-Bicycle     21.13333333~ -5.142675424~ 47.4093420~ 0.2300774494~
##  5 Railroad-Bicycle         22.33333333~ -1.808525921~ 46.4751925~ 0.0951705639~
##  6 Subway or elevated-Bicy~ 13.44517543~ -4.616365800~ 31.5067166~ 0.3301916718~
##  7 Taxicab-Bicycle          16.33333333~ -14.35043427~ 47.0171009~ 0.7687018970~
##  8 Walked-Bicycle           12.86904761~ -6.652241805~ 32.3903370~ 0.5033305941~
##  9 Car, truck, or van-Bus ~ -4.28228228~ -12.89264238~ 4.32807782~ 0.8289373496~
## 10 Ferryboat-Bus or trolle~ 2.912162162~ -19.92724113~ 25.7515654~ 0.9999822487~
## # ... with 26 more rows
…
summary(anova2)

##              Df Sum Sq Mean Sq F value Pr(>F)    
## JWTR_label    8  74116    9264   14.23 <2e-16 ***
## Residuals   314 204468     651                   
## ---
## Signif. codes:  0 '***' 0.001 '**' 0.01 '*' 0.05 '.' 0.1 ' ' 1

differences2 <- TukeyHSD(anova2)

as_tibble(cbind(pair = row.names(differences2$JWTR_label),
                differences2$JWTR_label))

## # A tibble: 36 x 5
##    pair                     diff         lwr          upr         `p adj`       
##    <chr>                    <chr>        <chr>        <chr>       <chr>         
##  1 Bus or trolley bus-Bicy~ 47.79279279~ 12.71297124~ 82.8726143~ 0.00091414749~
##  2 Car, truck, or van-Bicy~ 19.30864197~ -14.4155168~ 53.0328008~ 0.68990541950~
##  3 Ferryboat-Bicycle        38.33333333~ -13.1176896~ 89.7843563~ 0.32901823122~
##  4 Other method-Bicycle     37.93333333~ -10.3320044~ 86.1986711~ 0.25844701960~
##  5 Railroad-Bicycle         62.61904761~ 18.27384272~ 106.964252~ 0.00047749018~
##  6 Subway or elevated-Bicy~ 37.32675438~ 4.150239752~ 70.5032690~ 0.01469899785~
##  7 Taxicab-Bicycle          8.333333333~ -48.0284384~ 64.6951051~ 0.99994452691~
##  8 Walked-Bicycle           -2.80952380~ -38.6673908~ 33.0483432~ 0.99999960833~
##  9 Car, truck, or van-Bus ~ -28.4841508~ -44.3001730~ -12.668128~ 1.45896700387~
## 10 Ferryboat-Bus or trolle~ -9.45945945~ -51.4122356~ 32.4933167~ 0.99871099496~
## # ... with 26 more rows
…
summary(anova3)

##              Df    Sum Sq   Mean Sq F value   Pr(>F)    
## JWTR_label    8 5.387e+11 6.734e+10   10.98 1.15e-13 ***
## Residuals   314 1.926e+12 6.134e+09                     
## ---
## Signif. codes:  0 '***' 0.001 '**' 0.01 '*' 0.05 '.' 0.1 ' ' 1

differences3 <- TukeyHSD(anova3)

as_tibble(cbind(pair = row.names(differences3$JWTR_label),
                differences3$JWTR_label))

## # A tibble: 36 x 5
##    pair                     diff         lwr          upr         `p adj`       
##    <chr>                    <chr>        <chr>        <chr>       <chr>         
##  1 Bus or trolley bus-Bicy~ -4438.28828~ -112108.488~ 103231.911~ 0.99999999761~
##  2 Car, truck, or van-Bicy~ 15889.50617~ -87619.7696~ 119398.782~ 0.99992612082~
##  3 Ferryboat-Bicycle        370885.8333~ 212967.6432~ 528804.023~ 6.90888457555~
##  4 Other method-Bicycle     14323.33333~ -133817.060~ 162463.726~ 0.99999794794~
##  5 Railroad-Bicycle         27041.04761~ -109067.315~ 163149.410~ 0.99948772037~
##  6 Subway or elevated-Bicy~ 25605.30701~ -76223.0890~ 127433.703~ 0.99720119029~
##  7 Taxicab-Bicycle          -10383.3333~ -183374.043~ 162607.376~ 0.99999995257~
##  8 Walked-Bicycle           -1116.66666~ -111174.914~ 108941.581~ 1             
##  9 Car, truck, or van-Bus ~ 20327.79446~ -28216.1889~ 68871.7778~ 0.92849407215~
## 10 Ferryboat-Bus or trolle~ 375324.1216~ 246558.8200~ 504089.423~ 1.10567111022~
## # ... with 26 more rows
…
